[
  {
    "name": "about-us",
    "path": "/about-us",
    "component": "/home/netuser/code/trinchera/gobetweenlsp/pages/about-us.vue",
    "chunkName": "pages/about-us",
    "_name": "_ccefc300"
  },
  {
    "name": "contact-us",
    "path": "/contact-us",
    "component": "/home/netuser/code/trinchera/gobetweenlsp/pages/contact-us.vue",
    "chunkName": "pages/contact-us",
    "_name": "_5acb880d"
  },
  {
    "name": "index___en",
    "path": "/en",
    "component": "/home/netuser/code/trinchera/gobetweenlsp/pages/index.vue",
    "chunkName": "pages/index",
    "_name": "_0498b0a0"
  },
  {
    "name": "index___es",
    "path": "/es",
    "component": "/home/netuser/code/trinchera/gobetweenlsp/pages/index.vue",
    "chunkName": "pages/index",
    "_name": "_0498b0a0"
  },
  {
    "name": "services",
    "path": "/services",
    "component": "/home/netuser/code/trinchera/gobetweenlsp/pages/services.vue",
    "chunkName": "pages/services",
    "_name": "_2b2abc00"
  },
  {
    "name": "x-files",
    "path": "/x-files",
    "component": "/home/netuser/code/trinchera/gobetweenlsp/pages/x-files.vue",
    "chunkName": "pages/x-files",
    "_name": "_c27a41a0"
  },
  {
    "name": "about-us___en",
    "path": "/en/about-us",
    "component": "/home/netuser/code/trinchera/gobetweenlsp/pages/about-us.vue",
    "chunkName": "pages/about-us",
    "_name": "_ccefc300"
  },
  {
    "name": "contact-us___en",
    "path": "/en/contact-us",
    "component": "/home/netuser/code/trinchera/gobetweenlsp/pages/contact-us.vue",
    "chunkName": "pages/contact-us",
    "_name": "_5acb880d"
  },
  {
    "name": "services___en",
    "path": "/en/services",
    "component": "/home/netuser/code/trinchera/gobetweenlsp/pages/services.vue",
    "chunkName": "pages/services",
    "_name": "_2b2abc00"
  },
  {
    "name": "x-files___en",
    "path": "/en/x-files",
    "component": "/home/netuser/code/trinchera/gobetweenlsp/pages/x-files.vue",
    "chunkName": "pages/x-files",
    "_name": "_c27a41a0"
  },
  {
    "name": "about-us___es",
    "path": "/es/about-us",
    "component": "/home/netuser/code/trinchera/gobetweenlsp/pages/about-us.vue",
    "chunkName": "pages/about-us",
    "_name": "_ccefc300"
  },
  {
    "name": "contact-us___es",
    "path": "/es/contact-us",
    "component": "/home/netuser/code/trinchera/gobetweenlsp/pages/contact-us.vue",
    "chunkName": "pages/contact-us",
    "_name": "_5acb880d"
  },
  {
    "name": "services___es",
    "path": "/es/services",
    "component": "/home/netuser/code/trinchera/gobetweenlsp/pages/services.vue",
    "chunkName": "pages/services",
    "_name": "_2b2abc00"
  },
  {
    "name": "x-files___es",
    "path": "/es/x-files",
    "component": "/home/netuser/code/trinchera/gobetweenlsp/pages/x-files.vue",
    "chunkName": "pages/x-files",
    "_name": "_c27a41a0"
  },
  {
    "name": "index",
    "path": "/",
    "component": "/home/netuser/code/trinchera/gobetweenlsp/pages/index.vue",
    "chunkName": "pages/index",
    "_name": "_0498b0a0"
  }
]
